[gd_scene load_steps=3 format=3 uid="uid://bna53o15w6naq"]

[ext_resource type="PackedScene" uid="uid://cplr12julla7p" path="res://Levels/Hands/Hand.tscn" id="1_cs5g4"]
[ext_resource type="Texture2D" uid="uid://dfy613ehvyry2" path="res://Sprites/Mano_1.png" id="2_ngihw"]

[node name="LeftHand" instance=ExtResource("1_cs5g4")]
interact_name = "lefthand_interact"
flip_name = "lefthand_flip"
speed = Vector2(1000, 1000)
top_left_limit = Vector2(0, 0.2)
bottom_right_limit = Vector2(1, 1)

[node name="Sprite2D" parent="." index="0"]
position = Vector2(0.5, -0.485144)
scale = Vector2(0.621429, 0.586214)
texture = ExtResource("2_ngihw")
flip_h = true

[node name="HandPivot" parent="." index="3"]
position = Vector2(11, -25)
