[gd_scene load_steps=4 format=3 uid="uid://bach34qrk60nk"]

[ext_resource type="Script" path="res://Scripts/UI/ShowTimeLeft.gd" id="1_h40bm"]
[ext_resource type="FontFile" uid="uid://nngr6doj4707" path="res://Levels/UI/Fonts/Caveat-Medium.ttf" id="2_cu2gf"]
[ext_resource type="AudioStream" uid="uid://c0bbt7sykwnd0" path="res://SFX/UI_5secTimeEnd (1).mp3" id="2_ual50"]

[node name="DayTimer" type="Panel"]
offset_left = 25.0
offset_top = 18.0
offset_right = 108.0
offset_bottom = 69.0
script = ExtResource("1_h40bm")

[node name="Label" type="Label" parent="."]
layout_mode = 1
anchors_preset = 15
anchor_right = 1.0
anchor_bottom = 1.0
offset_top = -2.0
offset_bottom = 1.0
grow_horizontal = 2
grow_vertical = 2
theme_override_fonts/font = ExtResource("2_cu2gf")
theme_override_font_sizes/font_size = 40
text = "60s"
horizontal_alignment = 1
vertical_alignment = 1

[node name="AudioStreamPlayer" type="AudioStreamPlayer" parent="."]
stream = ExtResource("2_ual50")
