[gd_resource type="Resource" script_class="PackageTemplate" load_steps=2 format=3 uid="uid://b4kjdkrpdt31x"]

[ext_resource type="Script" path="res://Scripts/PackageTemplate.gd" id="1_8rk0f"]

[resource]
script = ExtResource("1_8rk0f")
from = "Sergio"
to = "Tomas"
color = Color(0.827451, 0.827451, 0, 1)
post_it = "Enjoy the bbq"
shipping_number = 12245
origin = "EEUU"
tags = Array[String]([])
timmy_package = false
