[gd_resource type="Resource" script_class="PackageTemplate" load_steps=2 format=3 uid="uid://5le24jjvxxeg"]

[ext_resource type="Script" path="res://Scripts/PackageTemplate.gd" id="1_pyx1a"]

[resource]
script = ExtResource("1_pyx1a")
from = "Juli"
to = "Ferr"
color = Color(0.67451, 0.756863, 0.337255, 1)
post_it = "Move the stamp 1 pixel to the right"
shipping_number = 20421
origin = "France"
tags = Array[String]([])
timmy_package = false
mafia_hand = false
