[gd_resource type="Resource" script_class="PackageTemplate" load_steps=2 format=3 uid="uid://d3hm8ob4fwsln"]

[ext_resource type="Script" path="res://Scripts/PackageTemplate.gd" id="1_tdv78"]

[resource]
script = ExtResource("1_tdv78")
from = "Acheto"
to = "Mila"
color = Color(0.341176, 0.807843, 0.678431, 1)
post_it = ""
shipping_number = 21341
origin = "Argentine"
tags = Array[String]([])
timmy_package = false
