[gd_scene load_steps=4 format=3 uid="uid://gbinqfgjotev"]

[ext_resource type="Script" path="res://Scripts/Conveyor.gd" id="1_i4re2"]
[ext_resource type="Script" path="res://Scripts/OnlyEditor.gd" id="2_t35tp"]
[ext_resource type="Texture2D" uid="uid://csysogms3ji6e" path="res://Sprites/white_box.png" id="3_enryn"]

[node name="Conveyor" type="Node2D"]
position = Vector2(1041, 317)
script = ExtResource("1_i4re2")
moving_speed = 40.0

[node name="To" type="Node2D" parent="."]
position = Vector2(590, 1)

[node name="Sprite2D" type="Sprite2D" parent="To"]
scale = Vector2(20, 20)
texture = ExtResource("3_enryn")
script = ExtResource("2_t35tp")

[node name="EditorOnly" type="Node2D" parent="."]
script = ExtResource("2_t35tp")

[node name="Sprite2D" type="Sprite2D" parent="EditorOnly"]
scale = Vector2(50, 13.706)
texture = ExtResource("3_enryn")

[node name="Label" type="Label" parent="EditorOnly"]
offset_left = -48.0
offset_top = -13.0
offset_right = 26.0
offset_bottom = 13.0
theme_override_colors/font_color = Color(0, 0, 0, 1)
text = "Conveyor"
