[gd_scene load_steps=3 format=3 uid="uid://168d48l4ttvu"]

[ext_resource type="Script" path="res://Scripts/Interactables/InteractableArea.gd" id="1_lkprk"]

[sub_resource type="RectangleShape2D" id="RectangleShape2D_bmu00"]
size = Vector2(466.5, 141.875)

[node name="InteractableTable" type="Area2D"]
script = ExtResource("1_lkprk")
area_type = 1

[node name="CollisionShape2D" type="CollisionShape2D" parent="."]
shape = SubResource("RectangleShape2D_bmu00")
