[gd_resource type="Resource" script_class="PackageTemplate" load_steps=2 format=3 uid="uid://ik1y31ssgaia"]

[ext_resource type="Script" path="res://Scripts/PackageTemplate.gd" id="1_4gdyq"]

[resource]
script = ExtResource("1_4gdyq")
from = "Gustavo"
to = ""
color = Color(0.823529, 0.933333, 0.615686, 1)
post_it = "Gracias totales! "
shipping_number = 20071
origin = "Argentine"
tags = Array[String]([])
timmy_package = false
