[gd_resource type="Resource" script_class="PackageTemplate" load_steps=2 format=3 uid="uid://c0r8my4ewa2sb"]

[ext_resource type="Script" path="res://Scripts/PackageTemplate.gd" id="1_33hes"]

[resource]
script = ExtResource("1_33hes")
from = "Solaire"
to = "NoHollow"
color = Color(0.890196, 0.647059, 0.192157, 1)
post_it = "Praise the Sun! \\[T]/"
shipping_number = 0
origin = "Astora"
tags = Array[String]([])
