[gd_resource type="Resource" script_class="PackageTemplate" load_steps=2 format=3 uid="uid://dwjnkvtlxmudv"]

[ext_resource type="Script" path="res://Scripts/PackageTemplate.gd" id="1_uu8ya"]

[resource]
script = ExtResource("1_uu8ya")
from = "Timmy :("
to = "Granma"
color = Color(0.827451, 0.827451, 0, 1)
post_it = "Grama, why dint I get eny present?"
shipping_number = 472346
origin = "England"
tags = Array[String]([])
timmy_package = false
