[gd_resource type="Resource" script_class="PackageTemplate" load_steps=2 format=3 uid="uid://d1fglaak3jlv6"]

[ext_resource type="Script" path="res://Scripts/PackageTemplate.gd" id="1_mgg7n"]

[resource]
script = ExtResource("1_mgg7n")
from = "Tobias"
to = "Delivery guy"
color = Color(0.933333, 1, 0.745098, 1)
post_it = "The cake is a lie"
shipping_number = 0
origin = ""
tags = Array[String]([])
